<?xml version="1.0" encoding="utf-8"?>
<!-- Generator: Adobe Illustrator 21.1.0, SVG Export Plug-In . SVG Version: 6.00 Build 0)  -->
<svg version="1.1" xmlns="http://www.w3.org/2000/svg" xmlns:xlink="http://www.w3.org/1999/xlink" x="0px" y="0px"
	 viewBox="0 0 190.5 30.3" style="enable-background:new 0 0 190.5 30.3;" xml:space="preserve">
<style type="text/css">
	.st0{fill:#1A675F;}
	.st1{clip-path:url(#SVGID_4_);fill:#FFFFFF;}
	.st2{fill:#79797A;}
	.st3{fill:#424243;}
	.st4{fill:#66C7C9;}
	.st5{fill:#E8E7E8;}
	.st6{fill:#2C3581;}
	.st7{fill:#444444;}
	.st8{fill:#F6901F;}
	.st9{fill:#E6C31F;}
	.st10{fill:#B1B0B1;}
	.st11{fill:#68BD64;}
	.st12{fill:#134F48;}
	.st13{fill:#FFFFFF;}
	.st14{fill:#0D3A33;}
	.st15{display:none;}
	.st16{display:inline;}
	.st17{opacity:0.25;}
	.st18{fill-rule:evenodd;clip-rule:evenodd;fill:#EC2024;}
</style>
<g id="Layer_1">
	<rect x="1131.5" y="-64.7" class="st0" width="555" height="753"/>
	<g>
		
			<image style="overflow:visible;opacity:0.15;" width="1475" height="937" xlink:href="B50ECD70E5BCAB23.png"  transform="matrix(1 0 0 1 287.5498 -108.6667)">
		</image>
		<g>
			<g>
				<defs>
					<rect id="SVGID_1_" x="320.5" y="-64.7" width="811" height="753"/>
				</defs>
				<clipPath id="SVGID_2_">
					<use xlink:href="#SVGID_1_"  style="overflow:visible;"/>
				</clipPath>
			</g>
			<g>
				<defs>
					<rect id="SVGID_3_" x="320.5" y="-64.7" width="811" height="753"/>
				</defs>
				<clipPath id="SVGID_4_">
					<use xlink:href="#SVGID_3_"  style="overflow:visible;"/>
				</clipPath>
				<rect x="290.5" y="-87.7" class="st1" width="1457" height="795"/>
				<g style="opacity:3.000000e-02;clip-path:url(#SVGID_4_);">
					
						<image style="overflow:visible;" width="3543" height="2365" xlink:href="../../../../../../../Users/brennafrench/Desktop/QuantifiedAg/PrecisionLivestock/LandingPageDesign/images/ilya-pavlov-87438 (1).jpg"  transform="matrix(1 0 0 1 320.5498 -64.6667)">
					</image>
				</g>
			</g>
			<g>
				<defs>
					<rect id="SVGID_5_" x="320.5" y="-64.7" width="811" height="753"/>
				</defs>
				<clipPath id="SVGID_6_">
					<use xlink:href="#SVGID_5_"  style="overflow:visible;"/>
				</clipPath>
			</g>
		</g>
	</g>
	<text transform="matrix(1 0 0 1 362.5498 287.3333)" class="st0" style="font-family:'FuturaPT-Demi'; font-size:48px;">Precision Livestock is</text>
	<text transform="matrix(1 0 0 1 362.5498 336.3333)"><tspan x="0" y="0" class="st2" style="font-family:'Raleway-Regular'; font-size:24px;">A centralized data platform for the improvement</tspan><tspan x="0" y="38" class="st2" style="font-family:'Raleway-Regular'; font-size:24px;">of animal health.</tspan></text>
	<text transform="matrix(1 0 0 1 362.5498 656.3333)"><tspan x="0" y="0" class="st0" style="font-family:'Raleway-Regular'; font-size:18px;">SenseTag</tspan><tspan x="83.2" y="0" class="st0" style="font-family:'Raleway-Regular'; font-size:18px; letter-spacing:29;">	</tspan><tspan x="117.2" y="0" class="st3" style="font-family:'Raleway-Regular'; font-size:18px;">Whisper</tspan><tspan x="187.2" y="0" class="st0" style="font-family:'Raleway-Regular'; font-size:18px; letter-spacing:31;">	</tspan><tspan x="222.9" y="0" class="st0" style="font-family:'Raleway-Regular'; font-size:18px;">SeaLice</tspan></text>
	
		<text transform="matrix(1 0 0 1 1333.391 529.3333)" class="st4" style="font-family:'Raleway-Regular'; font-size:18px; text-decoration: underline;">Forgot Password?</text>
	<rect x="-1245.5" y="689.4" class="st5" width="1367" height="106.8"/>
	<g>
		<g>
			<g>
				<text transform="matrix(1 0 0 1 -121.9756 749.4603)" class="st6" style="font-family:'Montserrat-Light'; font-size:14px;">© 2018, precisionlivestock.co</text>
			</g>
		</g>
		<path class="st6" d="M-151,729.1c-8.3,0-14.9,6.7-14.9,14.9c0,8.3,6.7,14.9,14.9,14.9s14.9-6.7,14.9-14.9
			C-136,735.8-142.7,729.1-151,729.1z M-154.1,752.1h-3.5l0-15.2h3.5L-154.1,752.1z M-149.2,752.1h-3.5l0-12.4h3.5L-149.2,752.1z
			 M-144.3,752.1l-3.5,0l0-16.7h3.5L-144.3,752.1z"/>
	</g>
	<text transform="matrix(1 0 0 1 454.2631 -218.6103)"><tspan x="0" y="0" class="st7" style="font-family:'FuturaPT-Demi'; font-size:16.761px;">#</tspan><tspan x="10.1" y="0" class="st7" style="font-family:'FuturaPT-Book'; font-size:16.761px;">f79120</tspan></text>
	<text transform="matrix(1 0 0 1 571.9781 -218.6103)"><tspan x="0" y="0" class="st7" style="font-family:'FuturaPT-Demi'; font-size:16.761px;">#</tspan><tspan x="10.1" y="0" class="st7" style="font-family:'FuturaPT-Book'; font-size:16.761px;">e6c41f</tspan></text>
	<text transform="matrix(1 0 0 1 685.8434 -218.6103)"><tspan x="0" y="0" class="st7" style="font-family:'FuturaPT-Demi'; font-size:16.761px;">#</tspan><tspan x="10.1" y="0" class="st7" style="font-family:'FuturaPT-Book'; font-size:16.761px;">67be64</tspan></text>
	<text transform="matrix(1 0 0 1 802.8434 -218.6103)"><tspan x="0" y="0" class="st7" style="font-family:'FuturaPT-Demi'; font-size:16.761px;">#</tspan><tspan x="10.1" y="0" class="st7" style="font-family:'FuturaPT-Book'; font-size:16.761px;">1c675e</tspan></text>
	<text transform="matrix(1 0 0 1 420.3433 -136.1236)"><tspan x="0" y="0" class="st7" style="font-family:'FuturaPT-Demi'; font-size:16.761px;">#</tspan><tspan x="10.1" y="0" class="st7" style="font-family:'FuturaPT-Book'; font-size:16.761px;">424242</tspan></text>
	<text transform="matrix(1 0 0 1 861.3433 -136.1236)"><tspan x="0" y="0" class="st7" style="font-family:'FuturaPT-Demi'; font-size:16.761px;">#</tspan><tspan x="10.1" y="0" class="st7" style="font-family:'FuturaPT-Book'; font-size:16.761px;">e8e8e9</tspan></text>
	<text transform="matrix(1 0 0 1 921.8434 -218.6103)"><tspan x="0" y="0" class="st7" style="font-family:'FuturaPT-Demi'; font-size:16.761px;">#</tspan><tspan x="10.1" y="0" class="st7" style="font-family:'FuturaPT-Book'; font-size:16.761px;">66c8ca</tspan></text>
	<text transform="matrix(1 0 0 1 1041.1338 -218.6103)"><tspan x="0" y="0" class="st7" style="font-family:'FuturaPT-Demi'; font-size:16.761px;">#</tspan><tspan x="10.1" y="0" class="st7" style="font-family:'FuturaPT-Book'; font-size:16.761px;">2b3682</tspan></text>
	<rect x="430.2" y="-269.6" class="st8" width="105.2" height="23"/>
	<rect x="547.5" y="-269.6" class="st9" width="105.2" height="23"/>
	<g>
		<rect x="337.5" y="-189.1" class="st3" width="222.5" height="23"/>
		<rect x="485.8" y="-189.1" class="st2" width="222.5" height="23"/>
		<rect x="634" y="-189.1" class="st10" width="222.5" height="23"/>
		<rect x="782.2" y="-189.1" class="st5" width="222.5" height="23"/>
	</g>
	<rect x="664.9" y="-269.6" class="st11" width="105.2" height="23"/>
	<rect x="782.2" y="-269.6" class="st0" width="105.2" height="23"/>
	<rect x="899.5" y="-269.6" class="st4" width="105.2" height="23"/>
	<rect x="1016.8" y="-269.6" class="st6" width="105.2" height="23"/>
	<g>
		<g>
			<path class="st0" d="M40,8.7c1.2,0,2.5,0.2,3.6,1.1c1.2,1,1.3,2.4,1.3,3.3c0,1.7-0.7,2.7-1.2,3.2c-1.1,1.1-2.5,1.2-3.5,1.2h-1.9
				v4.8h-3.2V8.7H40z M38.4,15h1.1c0.4,0,1.2,0,1.7-0.5c0.3-0.3,0.5-0.8,0.5-1.4c0-0.6-0.2-1-0.5-1.3c-0.5-0.5-1.1-0.5-1.8-0.5h-1.1
				V15z"/>
			<path class="st0" d="M46.2,13.2h2.9v1.4c0.3-0.5,0.7-1,1.1-1.3c0.5-0.3,1-0.4,1.6-0.4c0.4,0,0.6,0,1,0.1l-0.2,2.8
				c-0.4-0.2-0.8-0.3-1.3-0.3c-0.6,0-1.1,0.2-1.5,0.6c-0.7,0.7-0.7,1.7-0.7,2.5v3.7h-2.9V13.2z"/>
			<path class="st0" d="M63.5,18.3h-6.8c0,0.5,0.2,1.1,0.6,1.6c0.5,0.5,1.1,0.6,1.5,0.6c0.4,0,0.9-0.1,1.2-0.3c0,0,0.4-0.2,0.6-0.8
				l2.8,0.3c-0.4,1.3-1.2,2-1.8,2.3c-0.9,0.5-1.9,0.7-2.9,0.7c-1.4,0-2.6-0.2-3.6-1.3c-0.8-0.8-1.4-2-1.4-3.5c0-1.3,0.5-2.7,1.4-3.6
				c1.1-1.1,2.5-1.3,3.5-1.3c1,0,2.5,0.2,3.6,1.4c1.1,1.1,1.3,2.6,1.3,3.7V18.3z M60.8,16.5c0-0.1-0.2-0.7-0.6-1.1
				c-0.3-0.3-0.8-0.5-1.4-0.5c-0.8,0-1.2,0.3-1.5,0.6c-0.2,0.2-0.4,0.6-0.5,1H60.8z"/>
			<path class="st0" d="M72.2,16.1c-0.7-0.6-1.5-0.7-1.9-0.7c-0.9,0-1.5,0.4-1.7,0.7c-0.4,0.4-0.7,1-0.7,1.7c0,0.7,0.2,1.2,0.6,1.6
				c0.4,0.5,1.1,0.7,1.8,0.7c0.5,0,1.2-0.1,1.9-0.7v2.7c-0.8,0.4-1.5,0.6-2.3,0.6c-1.5,0-2.7-0.6-3.5-1.4c-0.7-0.7-1.4-1.8-1.4-3.5
				c0-1.6,0.7-2.8,1.5-3.6c1-1,2.2-1.3,3.5-1.3c0.8,0,1.5,0.1,2.3,0.5V16.1z"/>
			<path class="st0" d="M75.9,8.3c1,0,1.7,0.8,1.7,1.7s-0.8,1.7-1.7,1.7c-1,0-1.7-0.8-1.7-1.7S74.9,8.3,75.9,8.3z"/>
			<rect x="74.4" y="13.2" class="st0" width="2.9" height="9.1"/>
			<path class="st0" d="M85,15.5c-0.5-0.3-1-0.5-1.6-0.5c-0.3,0-0.7,0.1-0.8,0.3c-0.1,0.1-0.2,0.3-0.2,0.4c0,0.2,0.1,0.3,0.3,0.4
				c0.2,0.1,0.5,0.2,0.9,0.3l0.8,0.2c0.5,0.2,1,0.4,1.5,0.8c0.5,0.5,0.7,1,0.7,1.7c0,1.2-0.5,2-0.9,2.4c-0.9,0.9-2,1-3,1
				c-1.2,0-2.6-0.3-3.7-1.3l1.2-2c0.3,0.2,0.7,0.5,1,0.7c0.4,0.2,0.8,0.3,1.2,0.3c0.2,0,0.7,0,0.9-0.2c0.2-0.1,0.3-0.4,0.3-0.6
				c0-0.2-0.1-0.4-0.3-0.5c-0.2-0.1-0.5-0.2-0.9-0.3l-0.7-0.2c-0.5-0.2-1.1-0.5-1.5-0.8c-0.4-0.5-0.7-1-0.7-1.7
				c0-0.9,0.3-1.6,0.9-2.1c0.8-0.8,1.9-0.9,2.8-0.9c1.4,0,2.3,0.3,3,0.8L85,15.5z"/>
			<path class="st0" d="M90,8.3c1,0,1.7,0.8,1.7,1.7S91,11.8,90,11.8c-1,0-1.7-0.8-1.7-1.7S89,8.3,90,8.3z"/>
			<rect x="88.5" y="13.2" class="st0" width="2.9" height="9.1"/>
			<path class="st0" d="M102.5,21.2c-0.8,0.8-2.2,1.5-4,1.5c-1.8,0-3.2-0.7-4-1.5c-0.9-0.9-1.4-2.2-1.4-3.4c0-1.2,0.5-2.5,1.4-3.4
				c0.8-0.8,2.2-1.5,4-1.5c1.8,0,3.2,0.7,4,1.5c0.9,0.9,1.4,2.2,1.4,3.4C103.8,18.9,103.4,20.2,102.5,21.2z M96.8,16
				c-0.4,0.4-0.7,1-0.7,1.7c0,0.8,0.3,1.4,0.7,1.7c0.4,0.4,0.9,0.7,1.7,0.7c0.7,0,1.2-0.2,1.6-0.7c0.4-0.4,0.7-1,0.7-1.7
				s-0.2-1.3-0.7-1.7c-0.4-0.4-1-0.7-1.7-0.7C97.8,15.4,97.3,15.6,96.8,16z"/>
			<path class="st0" d="M105.3,13.2h2.9v1.1c0.9-1.1,2-1.3,2.8-1.3c0.8,0,1.8,0.1,2.6,0.9c0.9,0.9,0.9,1.9,0.9,2.7v5.8h-2.9v-4.7
				c0-0.6,0-1.4-0.5-1.8c-0.2-0.2-0.6-0.4-1.1-0.4c-0.6,0-1,0.2-1.2,0.5c-0.5,0.5-0.6,1.1-0.6,1.7v4.7h-2.9V13.2z"/>
			<path class="st0" d="M118.2,8.7v12.8h3.8v0.8h-4.7V8.7H118.2z"/>
			<path class="st0" d="M123.8,11.9c0-0.5,0.3-0.8,0.7-0.8c0.4,0,0.7,0.3,0.7,0.8c0,0.5-0.3,0.8-0.7,0.8
				C124.1,12.7,123.8,12.4,123.8,11.9z"/>
			<rect x="124.1" y="14" class="st0" width="0.8" height="8.4"/>
			<path class="st0" d="M128.3,14l2.9,6.9l2.9-6.9h0.9l-3.8,8.9l-3.8-8.9H128.3z"/>
			<path class="st0" d="M137.1,18.3c0,2.1,1.6,3.5,3.3,3.5c1.4,0,2.4-0.8,2.9-1.9l0.7,0.4c-0.5,0.9-1.6,2.3-3.7,2.3
				c-2.6,0-4.1-1.9-4.1-4.4c0-2.9,2-4.4,4.1-4.4c2.3,0,4,1.8,4,4.5H137.1z M143.3,17.5c-0.2-1.7-1.4-2.9-3.1-2.9
				c-1.7,0-2.9,1.3-3.1,2.9H143.3z"/>
			<path class="st0" d="M149.8,15.5c-0.3-0.7-0.9-0.9-1.5-0.9c-0.9,0-1.4,0.7-1.4,1.3c0,0.8,0.7,1.1,1.5,1.4
				c0.8,0.3,1.6,0.6,2.1,1.2c0.3,0.4,0.4,0.9,0.4,1.4c0,1.9-1.4,2.7-2.7,2.7c-1.4,0-2.5-0.8-2.9-2.2l0.8-0.2
				c0.3,1.1,1.2,1.7,2.1,1.7c1.1,0,1.9-0.8,1.9-1.8c0-0.9-0.6-1.3-1.9-1.8c-0.8-0.3-1.5-0.6-1.8-1.1c-0.2-0.2-0.4-0.6-0.4-1.1
				c0-1.3,1-2.1,2.2-2.1c1,0,1.8,0.5,2.2,1.4L149.8,15.5z"/>
			<path class="st0" d="M153.9,14.7v7.6h-0.8v-7.6h-0.9V14h0.9v-3h0.8v3h1.5v0.8H153.9z"/>
			<path class="st0" d="M165.3,18.2c0,2.5-1.9,4.4-4.4,4.4c-2.5,0-4.4-1.9-4.4-4.4s1.9-4.4,4.4-4.4
				C163.4,13.8,165.3,15.7,165.3,18.2z M164.4,18.2c0-2-1.5-3.6-3.5-3.6c-2,0-3.5,1.6-3.5,3.6c0,2,1.5,3.6,3.5,3.6
				C162.9,21.8,164.4,20.2,164.4,18.2z"/>
			<path class="st0" d="M174,15.9c-0.6-0.6-1.5-1.4-2.9-1.4c-2,0-3.5,1.6-3.5,3.6c0,2.4,1.8,3.6,3.4,3.6c1.3,0,2.4-0.8,3-1.5v1.1
				c-0.6,0.5-1.6,1.2-3.1,1.2c-2.5,0-4.3-1.9-4.3-4.3c0-2.5,1.7-4.4,4.3-4.4c0.6,0,1.7,0.1,2.9,1.1V15.9z"/>
			<path class="st0" d="M177.1,7.4v10.2l3.4-3.6h1.1l-3.5,3.6l4.7,4.7h-1.1l-4.1-4.1l-0.4,0.4v3.7h-0.8V7.4H177.1z"/>
		</g>
		<path class="st11" d="M16.2,1.8c-7.4,0-13.4,6-13.4,13.4c0,7.4,6,13.4,13.4,13.4s13.4-6,13.4-13.4C29.6,7.8,23.6,1.8,16.2,1.8z
			 M13.4,22.3h-3.2V8.7h3.2V22.3z M17.8,22.3h-3.2V11.2h3.2V22.3z M22.2,22.3h-3.2V7.4h3.2V22.3z"/>
		<g>
			<path class="st0" d="M184.8,20.6v1.8h-0.3v-1.8h-0.5v-0.2h1.2v0.2H184.8z M185.5,22.4l0.3-2.1l0.8,1.7l0.8-1.7l0.3,2.1h-0.2
				l-0.2-1.4l-0.7,1.5l-0.7-1.5l-0.2,1.4H185.5z"/>
		</g>
	</g>
	<path class="st12" d="M1408.4,82c-29.4,0-53.2,23.8-53.2,53.2c0,29.4,23.8,53.2,53.2,53.2s53.2-23.8,53.2-53.2
		C1461.6,105.8,1437.8,82,1408.4,82z M1397.1,163.6h-12.5v-54.2h12.5V163.6z M1414.7,163.6h-12.5v-44.2h12.5V163.6z M1432.2,163.6
		h-12.5v-59.3h12.5V163.6z"/>
	<path class="st12" d="M1895.1,82c-29.4,0-53.2,23.8-53.2,53.2c0,29.4,23.8,53.2,53.2,53.2c29.4,0,53.2-23.8,53.2-53.2
		C1948.3,105.8,1924.5,82,1895.1,82z M1883.8,163.6h-12.5v-54.2h12.5V163.6z M1901.4,163.6h-12.5v-44.2h12.5V163.6z M1918.9,163.6
		h-12.5v-59.3h12.5V163.6z"/>
	<g>
		<rect x="1242.1" y="274.1" class="st13" width="333" height="1.1"/>
		<text transform="matrix(1 0 0 1 1241.7748 261.6615)" class="st13" style="font-family:'Raleway-Regular'; font-size:24px;">Brenna</text>
	</g>
	<g>
		<rect x="1242.1" y="370.4" class="st4" width="333" height="1.1"/>
		<text transform="matrix(1 0 0 1 1241.7748 357.8915)" class="st14" style="font-family:'Raleway-Regular'; font-size:24px;">Password</text>
	</g>
	<path class="st13" d="M1546.6,479h-276.3c-15.6,0-28.3-12.7-28.3-28.3v0c0-15.6,12.7-28.3,28.3-28.3h276.3
		c15.6,0,28.3,12.7,28.3,28.3v0C1574.9,466.3,1562.2,479,1546.6,479z"/>
	<text transform="matrix(1 0 0 1 1377.6344 458.3333)" class="st3" style="font-family:'FuturaPT-Bold'; font-size:20px;">LOGIN</text>
	<g>
		<g>
			<path d="M1495.4,478.6c-0.1,0-0.2-0.1-0.3-0.1c-0.8-0.2-1.4-0.9-1.4-1.8c0-0.2-0.1-0.5-0.2-0.7c-1.4-2.2-2.9-4.3-4.3-6.5
				c-0.3-0.5-0.5-1.1-0.6-1.7c-0.1-1.4,1.1-2.4,2.4-2.1c0.6,0.1,1.2,0.4,1.6,0.9c0.4,0.4,0.7,0.7,1.1,1.1c0-0.1,0-0.2,0-0.3
				c0-2.4,0-4.9,0-7.3c0-1.2,0.5-1.8,1.7-2.1c0,0,0,0,0,0c0.6,0,1.2,0,1.8,0c0,0,0,0,0.1,0c1.1,0.3,1.6,1,1.6,2.1c0,0.9,0,1.9,0,2.8
				c0,0.1,0,0.1,0,0.2c0.2,0,0.5,0,0.7,0c0.7,0,1.2,0.3,1.5,0.8c0.2,0.4,0.5,0.5,0.9,0.5c0.9,0,1.5,0.4,1.9,1.2
				c0,0.1,0.1,0.1,0.2,0.1c0.2,0,0.4,0,0.6,0c1.1,0,2,0.8,2,2c0,1.7,0,3.3,0,5c0,0.7-0.2,1.4-0.6,2c-0.6,0.9-1.2,1.8-1.8,2.7
				c-0.3,0.5-0.8,0.9-1.4,1c-0.1,0-0.3,0.1-0.4,0.1C1500,478.6,1497.7,478.6,1495.4,478.6z M1498.9,464.5c0,0.1,0,0.1,0,0.1
				c0,0.6,0,1.2,0,1.8c0,0.3-0.3,0.6-0.6,0.6c-0.3,0-0.6-0.2-0.7-0.5c0-0.1,0-0.2,0-0.3c0-2,0-4.1,0-6.1c0-0.5-0.3-0.7-0.7-0.7
				c-0.4,0-0.7,0-1.1,0c-0.5,0-0.8,0.2-0.8,0.8c0,2.1,0,4.1,0,6.2c0,1.3,0,2.6,0,4c0,0.4-0.3,0.7-0.6,0.7c-0.4,0-0.6-0.3-0.6-0.7
				c0-0.2,0-0.3,0-0.5c0-0.1,0-0.2-0.1-0.3c-0.6-0.6-1.3-1.3-1.9-1.9c-0.3-0.3-0.6-0.4-0.9-0.5c-0.6-0.1-1,0.2-0.9,0.8
				c0.1,0.4,0.2,0.8,0.4,1.1c1.4,2.1,2.9,4.3,4.3,6.4c0.2,0.4,0.4,0.7,0.4,1.2c0,0.5,0.3,0.7,0.8,0.7c2.1,0,4.1,0,6.2,0
				c0.5,0,0.9-0.2,1.2-0.6c0.6-0.9,1.2-1.8,1.8-2.6c0.1-0.2,0.2-0.4,0.3-0.6c0.2-0.4,0.1-0.9,0.1-1.3c0-1.5,0-3,0-4.4
				c0-0.4-0.2-0.7-0.5-0.7c-0.2,0-0.5,0-0.8,0c0,0.1,0,0.2,0,0.2c0,0.5,0,1.1,0,1.6c0,0.2-0.1,0.4-0.3,0.6c-0.2,0.1-0.4,0.1-0.6,0
				c-0.2-0.1-0.3-0.3-0.3-0.6c0-0.8,0-1.7,0-2.5c0-0.3-0.2-0.6-0.5-0.7c-0.3-0.1-0.6,0-0.8,0c0,0.7,0,1.3,0,1.9
				c0,0.3-0.1,0.5-0.4,0.6c-0.4,0.2-0.9-0.1-0.9-0.6c0-0.8,0-1.7,0-2.5c0-0.4-0.2-0.7-0.6-0.7
				C1499.3,464.5,1499.1,464.5,1498.9,464.5z"/>
			<path class="st13" d="M1498.9,464.5c0.2,0,0.5,0,0.7,0c0.3,0,0.6,0.3,0.6,0.7c0,0.8,0,1.7,0,2.5c0,0.5,0.5,0.8,0.9,0.6
				c0.3-0.1,0.4-0.3,0.4-0.6c0-0.6,0-1.2,0-1.9c0.3,0,0.6,0,0.8,0c0.3,0.1,0.5,0.3,0.5,0.7c0,0.8,0,1.7,0,2.5c0,0.3,0.1,0.5,0.3,0.6
				c0.2,0.1,0.4,0.1,0.6,0c0.2-0.1,0.3-0.3,0.3-0.6c0-0.5,0-1.1,0-1.6c0-0.1,0-0.1,0-0.2c0.3,0,0.5,0,0.8,0c0.3,0,0.5,0.3,0.5,0.7
				c0,1.5,0,3,0,4.4c0,0.4,0,0.9-0.1,1.3c-0.1,0.2-0.2,0.4-0.3,0.6c-0.6,0.9-1.2,1.8-1.8,2.6c-0.3,0.4-0.7,0.6-1.2,0.6
				c-2.1,0-4.1,0-6.2,0c-0.5,0-0.7-0.2-0.8-0.7c0-0.4-0.2-0.8-0.4-1.2c-1.4-2.1-2.9-4.3-4.3-6.4c-0.2-0.3-0.4-0.7-0.4-1.1
				c-0.1-0.6,0.3-1,0.9-0.8c0.4,0.1,0.7,0.2,0.9,0.5c0.6,0.6,1.3,1.3,1.9,1.9c0.1,0.1,0.1,0.2,0.1,0.3c0,0.2,0,0.3,0,0.5
				c0,0.4,0.3,0.7,0.6,0.7c0.4,0,0.6-0.3,0.6-0.7c0-1.3,0-2.6,0-4c0-2.1,0-4.1,0-6.2c0-0.5,0.2-0.8,0.8-0.8c0.4,0,0.7,0,1.1,0
				c0.5,0,0.7,0.3,0.7,0.7c0,2,0,4.1,0,6.1c0,0.1,0,0.2,0,0.3c0.1,0.3,0.4,0.6,0.7,0.5c0.3,0,0.6-0.3,0.6-0.6c0-0.6,0-1.2,0-1.8
				C1498.8,464.6,1498.9,464.5,1498.9,464.5z"/>
		</g>
	</g>
	<g>
		<g>
			<path d="M531.4,676.6c-0.1,0-0.2-0.1-0.3-0.1c-0.8-0.2-1.4-0.9-1.4-1.8c0-0.2-0.1-0.5-0.2-0.7c-1.4-2.2-2.9-4.3-4.3-6.5
				c-0.3-0.5-0.5-1.1-0.6-1.7c-0.1-1.4,1.1-2.4,2.4-2.1c0.6,0.1,1.2,0.4,1.6,0.9c0.4,0.4,0.7,0.7,1.1,1.1c0-0.1,0-0.2,0-0.3
				c0-2.4,0-4.9,0-7.3c0-1.2,0.5-1.8,1.7-2.1c0,0,0,0,0,0c0.6,0,1.2,0,1.8,0c0,0,0,0,0.1,0c1.1,0.3,1.6,1,1.6,2.1c0,0.9,0,1.9,0,2.8
				c0,0.1,0,0.1,0,0.2c0.2,0,0.5,0,0.7,0c0.7,0,1.2,0.3,1.5,0.8c0.2,0.4,0.5,0.5,0.9,0.5c0.9,0,1.5,0.4,1.9,1.2
				c0,0.1,0.1,0.1,0.2,0.1c0.2,0,0.4,0,0.6,0c1.1,0,2,0.8,2,2c0,1.7,0,3.3,0,5c0,0.7-0.2,1.4-0.6,2c-0.6,0.9-1.2,1.8-1.8,2.7
				c-0.3,0.5-0.8,0.9-1.4,1c-0.1,0-0.3,0.1-0.4,0.1C536,676.6,533.7,676.6,531.4,676.6z M534.9,662.5c0,0.1,0,0.1,0,0.1
				c0,0.6,0,1.2,0,1.8c0,0.3-0.3,0.6-0.6,0.6c-0.3,0-0.6-0.2-0.7-0.5c0-0.1,0-0.2,0-0.3c0-2,0-4.1,0-6.1c0-0.5-0.3-0.7-0.7-0.7
				c-0.4,0-0.7,0-1.1,0c-0.5,0-0.8,0.2-0.8,0.8c0,2.1,0,4.1,0,6.2c0,1.3,0,2.6,0,4c0,0.4-0.3,0.7-0.6,0.7c-0.4,0-0.6-0.3-0.6-0.7
				c0-0.2,0-0.3,0-0.5c0-0.1,0-0.2-0.1-0.3c-0.6-0.6-1.3-1.3-1.9-1.9c-0.3-0.3-0.6-0.4-0.9-0.5c-0.6-0.1-1,0.2-0.9,0.8
				c0.1,0.4,0.2,0.8,0.4,1.1c1.4,2.1,2.9,4.3,4.3,6.4c0.2,0.4,0.4,0.7,0.4,1.2c0,0.5,0.3,0.7,0.8,0.7c2.1,0,4.1,0,6.2,0
				c0.5,0,0.9-0.2,1.2-0.6c0.6-0.9,1.2-1.8,1.8-2.6c0.1-0.2,0.2-0.4,0.3-0.6c0.2-0.4,0.1-0.9,0.1-1.3c0-1.5,0-3,0-4.4
				c0-0.4-0.2-0.7-0.5-0.7c-0.2,0-0.5,0-0.8,0c0,0.1,0,0.2,0,0.2c0,0.5,0,1.1,0,1.6c0,0.2-0.1,0.4-0.3,0.6c-0.2,0.1-0.4,0.1-0.6,0
				c-0.2-0.1-0.3-0.3-0.3-0.6c0-0.8,0-1.7,0-2.5c0-0.3-0.2-0.6-0.5-0.7c-0.3-0.1-0.6,0-0.8,0c0,0.7,0,1.3,0,1.9
				c0,0.3-0.1,0.5-0.4,0.6c-0.4,0.2-0.9-0.1-0.9-0.6c0-0.8,0-1.7,0-2.5c0-0.4-0.2-0.7-0.6-0.7C535.3,662.5,535.1,662.5,534.9,662.5z
				"/>
			<path class="st13" d="M534.9,662.5c0.2,0,0.5,0,0.7,0c0.3,0,0.6,0.3,0.6,0.7c0,0.8,0,1.7,0,2.5c0,0.5,0.5,0.8,0.9,0.6
				c0.3-0.1,0.4-0.3,0.4-0.6c0-0.6,0-1.2,0-1.9c0.3,0,0.6,0,0.8,0c0.3,0.1,0.5,0.3,0.5,0.7c0,0.8,0,1.7,0,2.5c0,0.3,0.1,0.5,0.3,0.6
				c0.2,0.1,0.4,0.1,0.6,0c0.2-0.1,0.3-0.3,0.3-0.6c0-0.5,0-1.1,0-1.6c0-0.1,0-0.1,0-0.2c0.3,0,0.5,0,0.8,0c0.3,0,0.5,0.3,0.5,0.7
				c0,1.5,0,3,0,4.4c0,0.4,0,0.9-0.1,1.3c-0.1,0.2-0.2,0.4-0.3,0.6c-0.6,0.9-1.2,1.8-1.8,2.6c-0.3,0.4-0.7,0.6-1.2,0.6
				c-2.1,0-4.1,0-6.2,0c-0.5,0-0.7-0.2-0.8-0.7c0-0.4-0.2-0.8-0.4-1.2c-1.4-2.1-2.9-4.3-4.3-6.4c-0.2-0.3-0.4-0.7-0.4-1.1
				c-0.1-0.6,0.3-1,0.9-0.8c0.4,0.1,0.7,0.2,0.9,0.5c0.6,0.6,1.3,1.3,1.9,1.9c0.1,0.1,0.1,0.2,0.1,0.3c0,0.2,0,0.3,0,0.5
				c0,0.4,0.3,0.7,0.6,0.7c0.4,0,0.6-0.3,0.6-0.7c0-1.3,0-2.6,0-4c0-2.1,0-4.1,0-6.2c0-0.5,0.2-0.8,0.8-0.8c0.4,0,0.7,0,1.1,0
				c0.5,0,0.7,0.3,0.7,0.7c0,2,0,4.1,0,6.1c0,0.1,0,0.2,0,0.3c0.1,0.3,0.4,0.6,0.7,0.5c0.3,0,0.6-0.3,0.6-0.6c0-0.6,0-1.2,0-1.8
				C534.8,662.6,534.9,662.5,534.9,662.5z"/>
		</g>
	</g>
	<path class="st11" d="M1784.9-60.5c-8.1,0-14.6,6.5-14.6,14.6c0,8.1,6.5,14.6,14.6,14.6s14.6-6.5,14.6-14.6
		C1799.5-53.9,1793-60.5,1784.9-60.5z M1781.8-38h-3.4v-14.9h3.4V-38z M1786.7-38h-3.4v-12.1h3.4V-38z M1791.5-38h-3.4v-16.3h3.4
		V-38z"/>
</g>
<g id="Layer_2" class="st15">
	<g id="Grid-1170" class="st16">
		<g id="Columns" class="st17">
			<g>
				<path class="st18" d="M355.6,2655.8h75.9V-63.7h-75.9V2655.8z M466.5,2655.8h75.9V-63.7h-75.9V2655.8z M577.4,2655.8h75.9V-63.7
					h-75.9V2655.8z M688.3,2655.8h75.9V-63.7h-75.9V2655.8z M799.2,2655.8h75.9V-63.7h-75.9V2655.8z M910.1,2655.8H986V-63.7h-75.9
					V2655.8z M1021.1,2655.8h75.9V-63.7h-75.9V2655.8z M1132,2655.8h75.9V-63.7H1132V2655.8z M1242.9,2655.8h75.9V-63.7h-75.9
					V2655.8z M1353.8,2655.8h75.9V-63.7h-75.9V2655.8z M1464.7,2655.8h75.9V-63.7h-75.9V2655.8z M1575.6-63.7v2719.5h75.9V-63.7
					H1575.6z"/>
			</g>
		</g>
	</g>
	<g class="st16">
		<g>
			<g>
			</g>
			<g>
			</g>
		</g>
		<g>
			<g>
			</g>
			<g>
			</g>
		</g>
		<g>
			<g>
			</g>
			<g>
			</g>
		</g>
		<g>
			<g>
			</g>
			<g>
			</g>
		</g>
		<g>
			<g>
			</g>
			<g>
			</g>
		</g>
		<g>
			<g>
			</g>
			<g>
			</g>
		</g>
		<g>
			<g>
			</g>
			<g>
			</g>
		</g>
		<g>
			<g>
			</g>
			<g>
			</g>
		</g>
		<g>
			<g>
			</g>
			<g>
			</g>
		</g>
		<g>
			<g>
			</g>
			<g>
			</g>
		</g>
		<g>
			<g>
			</g>
			<g>
			</g>
		</g>
		<g>
			<g>
			</g>
			<g>
			</g>
		</g>
		<g>
			<g>
			</g>
			<g>
			</g>
		</g>
	</g>
</g>
</svg>
